<svg width="16" height="22" viewBox="0 0 16 22" fill="none" xmlns="http://www.w3.org/2000/svg">
<path d="M8.0991 3.77344C5.67223 3.77344 3.69629 5.75372 3.69629 8.18593C3.69629 10.6181 5.67223 12.5943 8.0991 12.5943C10.526 12.5943 12.5019 10.6181 12.5019 8.18593C12.4978 5.74961 10.5219 3.77344 8.0991 3.77344ZM8.0991 12.2656C5.8526 12.2656 4.02425 10.4333 4.02425 8.18593C4.02425 5.93449 5.8526 4.10211 8.0991 4.10211C10.3456 4.10211 12.174 5.93449 12.174 8.18593C12.1699 10.4333 10.3415 12.2656 8.0991 12.2656Z" fill="white" stroke="white" stroke-width="0.6"/>
<path d="M8.10025 1C4.18527 1 1 4.19228 1 8.11586C1 11.2136 4.15248 15.585 6.45637 18.7773C7.06309 19.6154 7.58372 20.3426 7.96087 20.926C7.98957 20.9712 8.04286 21 8.10025 21C8.15764 21 8.20684 20.9712 8.23963 20.926C8.61678 20.3426 9.14151 19.6154 9.74823 18.7732C12.048 15.5809 15.2005 11.2095 15.2005 8.11586C15.1964 4.19228 12.0111 1 8.10025 1ZM9.47767 18.5842C8.93654 19.332 8.4651 19.9893 8.09615 20.5399C7.7313 19.9893 7.25576 19.3361 6.71874 18.5883C4.57062 15.6097 1.32796 11.1068 1.32796 8.11586C1.32796 4.37305 4.36565 1.32868 8.10025 1.32868C11.8349 1.32868 14.8725 4.37305 14.8725 8.11586C14.8684 11.1068 11.6258 15.6056 9.47767 18.5842Z" fill="white" stroke="white" stroke-width="0.6"/>
</svg>
