<svg width="16" height="16" viewBox="0 0 16 16" fill="none" xmlns="http://www.w3.org/2000/svg">
<path d="M8 0C3.58797 0 0 3.58797 0 8C0 12.412 3.58797 16 8 16C12.412 16 16 12.412 16 8C16 3.58797 12.412 0 8 0ZM11.68 14.1959C9.40797 15.532 6.59203 15.532 4.32 14.1959V12.852C4.32 10.8759 5.94797 9.28 7.92406 9.28H8.07594C10.052 9.28 11.68 10.8759 11.68 12.852V14.1959ZM12.48 13.648V12.852C12.48 10.4359 10.4959 8.48 8.07594 8.48H7.92406C5.50406 8.48 3.52 10.4359 3.52 12.852V13.648C1.88 12.328 0.792031 10.288 0.792031 8C0.792031 4.02797 4.02797 0.8 7.99594 0.8C11.9641 0.8 15.208 4.02797 15.208 8C15.208 10.288 14.12 12.328 12.48 13.648Z" fill="white"/>
<path d="M10.8083 4.80422C10.8083 3.25609 9.54832 1.99609 8.00035 1.99609C6.45238 1.99609 5.19238 3.25609 5.19238 4.80422C5.19238 6.35219 6.45238 7.61219 8.00035 7.61219C8.37629 8.11609 8.97238 8.42016 9.60832 8.42016C10.7163 8.42016 11.6163 7.52016 11.6163 6.41219C11.6163 5.77609 11.3124 5.18016 10.8083 4.80422ZM5.99238 4.80422C5.99238 3.69609 6.89238 2.79609 8.00035 2.79609C9.10832 2.79609 10.0083 3.69609 10.0083 4.80422C10.0083 4.85609 10.0044 4.91609 10.0004 4.97609C9.91629 5.95219 9.14832 6.72016 8.17238 6.80422C8.10832 6.80813 8.05238 6.81219 8.00035 6.81219C6.89238 6.81219 5.99238 5.91219 5.99238 4.80422ZM9.60832 7.62016C9.38035 7.62016 9.16035 7.55609 8.97238 7.44016C9.74441 7.15609 10.3524 6.54813 10.6324 5.78016C10.7483 5.96813 10.8124 6.18813 10.8124 6.41609C10.8163 7.07609 10.2763 7.62016 9.60832 7.62016Z" fill="white"/>
</svg>
