<svg width="17" height="17" viewBox="0 0 17 17" fill="none" xmlns="http://www.w3.org/2000/svg">
<path d="M0.706989 1.20702L0.70751 1.2069L4.16031 0.410095C4.16033 0.41009 4.16035 0.410086 4.16037 0.410081C4.34665 0.367253 4.53998 0.46499 4.61646 0.640371C4.61656 0.640591 4.61666 0.640811 4.61675 0.641032L6.20975 4.35803C6.27929 4.5203 6.23187 4.71007 6.09706 4.81889L6.09495 4.82059L6.09496 4.8206L4.08289 6.46744L3.84173 6.66482L3.97414 6.94693C5.20861 9.57703 7.36451 11.7639 10.05 13.0226L10.332 13.1548L10.5293 12.9138L12.176 10.9019L0.706989 1.20702ZM0.706989 1.20702C0.527657 1.24815 0.4 1.40782 0.4 1.59408C0.4 9.88936 7.12348 16.6 15.4059 16.6C15.5929 16.6 15.7517 16.4715 15.7932 16.2922L16.5899 12.8397C16.5899 12.8397 16.5899 12.8396 16.5899 12.8396C16.6324 12.6551 16.5366 12.4602 16.3554 12.3798L12.6387 10.7869C12.478 10.7181 12.2897 10.7632 12.1761 10.9017L0.706989 1.20702Z" stroke="white" stroke-width="0.8"/>
</svg>
