<svg width="11" height="13" viewBox="0 0 11 13" fill="none" xmlns="http://www.w3.org/2000/svg">
<path d="M1.79581 3.49805H1.43555C0.883262 3.49805 0.435547 3.94576 0.435547 4.49805L0.435547 11.2457C0.435547 11.7979 0.883262 12.2457 1.43555 12.2457H1.79581C2.34809 12.2457 2.79581 11.7979 2.79581 11.2457L2.79581 4.49805C2.79581 3.94576 2.34809 3.49805 1.79581 3.49805Z" fill="#DE6B54"/>
<path d="M7.63697 3.49885C7.03999 3.49885 6.64973 3.69531 6.34542 3.90881C6.1903 4.01765 5.97731 3.91615 5.97731 3.72666C5.97731 3.6004 5.87496 3.49805 5.7487 3.49805L4.60352 3.49805C4.05123 3.49805 3.60352 3.94576 3.60352 4.49805L3.60352 11.2457C3.60352 11.7979 4.05123 12.2457 4.60352 12.2457H4.97651C5.52879 12.2457 5.97651 11.7979 5.97651 11.2457L5.97651 6.77811C5.97651 6.75182 5.97541 6.72611 5.97534 6.69981C5.97481 6.50483 6.03837 5.64202 7.20435 5.64202C7.9964 5.64202 8.36221 6.09293 8.36221 6.73865V11.2457C8.36221 11.798 8.80993 12.2457 9.36221 12.2457H9.86324C10.4155 12.2457 10.8632 11.798 10.8632 11.2457V6.81577C10.8632 3.83363 8.46243 3.49885 7.63697 3.49885Z" fill="#DE6B54"/>
<path d="M1.60302 2.70214C2.26182 2.70214 2.79589 2.16807 2.79589 1.50927C2.79589 0.85047 2.26182 0.316406 1.60302 0.316406C0.94422 0.316406 0.410156 0.85047 0.410156 1.50927C0.410156 2.16807 0.94422 2.70214 1.60302 2.70214Z" fill="#DE6B54"/>
</svg>
