<svg width="20" height="20" viewBox="0 0 20 20" fill="none" xmlns="http://www.w3.org/2000/svg">
<path d="M19.7889 18.7756L14.0301 13.0168C15.3381 11.448 15.9907 9.43536 15.8523 7.39758C15.7139 5.35979 14.7951 3.45384 13.2871 2.07634C11.779 0.698834 9.79789 -0.0441364 7.75593 0.00202948C5.71397 0.0481954 3.76845 0.879942 2.32419 2.32419C0.879942 3.76845 0.0481954 5.71397 0.00202948 7.75593C-0.0441364 9.79789 0.698834 11.779 2.07634 13.2871C3.45384 14.7951 5.35979 15.7139 7.39758 15.8523C9.43536 15.9907 11.448 15.3381 13.0168 14.0301L18.7756 19.7889C18.8419 19.8558 18.9209 19.9089 19.0078 19.9451C19.0948 19.9813 19.1881 20 19.2823 20C19.3765 20 19.4697 19.9813 19.5567 19.9451C19.6437 19.9089 19.7226 19.8558 19.7889 19.7889C19.8558 19.7226 19.9089 19.6437 19.9451 19.5567C19.9813 19.4697 20 19.3765 20 19.2823C20 19.1881 19.9813 19.0948 19.9451 19.0078C19.9089 18.9209 19.8558 18.8419 19.7889 18.7756ZM1.44213 7.94307C1.44213 6.65731 1.8234 5.40042 2.53774 4.33134C3.25207 3.26227 4.26738 2.42903 5.45527 1.93699C6.64316 1.44495 7.95029 1.3162 9.21134 1.56705C10.4724 1.81789 11.6308 2.43704 12.5399 3.34621C13.4491 4.25539 14.0683 5.41374 14.3191 6.6748C14.5699 7.93586 14.4412 9.24298 13.9492 10.4309C13.4571 11.6188 12.6239 12.6341 11.5548 13.3484C10.4857 14.0627 9.22884 14.444 7.94307 14.444C6.2195 14.4421 4.56705 13.7566 3.3483 12.5378C2.12955 11.3191 1.44402 9.66665 1.44213 7.94307Z" fill="white"/>
</svg>
