<svg width="229" height="92" viewBox="0 0 229 92" fill="none" xmlns="http://www.w3.org/2000/svg">
<path d="M206.378 92H205.094L0 91.8342V0H228.674V69.5387H206.378V92ZM2.56937 89.2649L203.809 89.3892V69.4973H181.472V34.7694H184.041V66.9694H203.809V34.7694H206.378V66.9694H226.146V2.56937H2.56937V89.2649Z" fill="white"/>
<path d="M206.379 34.7686H203.81C203.81 29.3398 199.375 24.9055 193.947 24.9055C188.518 24.9055 184.042 29.2983 184.042 34.7686H181.473C181.473 27.8893 187.067 22.3362 193.905 22.3362C200.784 22.2947 206.379 27.8893 206.379 34.7686Z" fill="white"/>
<path d="M25.0723 22.0879H29.6308L35.1011 32.2825H35.7642L41.1515 22.0879H45.7515V43.8032H43.0579V25.196H42.3948L36.8416 35.4735H33.9822L28.429 25.196H27.766V43.8032H25.0723V22.0879Z" fill="white"/>
<path d="M52.5466 49.894L55.6962 42.3931L49.1484 28.4688H51.925L56.6079 38.5805H57.3538L61.6223 28.4688H64.316L55.116 49.894H52.5466Z" fill="white"/>
<path d="M72.3159 30.3379C70.1195 30.3379 68.9592 31.0424 68.5862 32.7H66.1412C66.4312 29.7991 68.8348 28.0586 72.3574 28.0586C76.17 28.0586 78.2421 30.0063 78.2421 32.3271C78.2421 34.0262 77.4961 35.1036 76.5844 35.4352V36.0982C77.7033 36.4298 78.7808 37.4658 78.7808 39.5793C78.7808 42.1072 76.543 44.2208 72.4403 44.2208C68.2132 44.2208 65.9754 42.3559 65.5195 39.4964H68.006C68.5862 41.4027 70.3267 41.9829 72.3988 41.9829C74.5952 41.9829 76.17 41.1955 76.17 39.5379C76.17 38.046 75.2997 37.1757 72.8132 37.1757H70.1195V34.9379H72.6889C74.8853 34.9379 75.6727 33.9433 75.6727 32.7415C75.7141 31.1253 74.3051 30.3379 72.3159 30.3379Z" fill="white"/>
<path d="M96.2266 36.0978H84.5401C84.623 39.7447 86.2806 41.9411 89.4302 41.9411C91.5851 41.9411 92.8698 41.0293 93.3257 39.5789H95.9365C95.4392 42.1897 93.2428 44.2203 89.4302 44.2203C84.6644 44.2203 81.9707 40.7392 81.9707 36.0149C81.9707 31.2906 84.7058 28.0996 89.3473 28.0996C93.9058 28.0996 96.1022 31.4564 96.1851 35.2275V36.0978H96.2266ZM84.7058 33.9429H93.5743C93.4085 31.9951 91.9167 30.3374 89.3473 30.3374C86.5707 30.3374 85.0374 31.9951 84.7058 33.9429Z" fill="white"/>
<path d="M100.246 43.8021V28.4688H102.774V40.321H103.437L110.151 28.4688H113.922V43.8021H111.394V31.9498H110.731L103.893 43.8021H100.246Z" fill="white"/>
<path d="M36.4279 59.8859H33.8171L28.181 69.7075H25.1973L31.7036 58.2282L26.1504 47.9922H29.0928L33.8171 56.6535H36.4693L41.2765 47.9922H44.1774L38.5414 58.1453L45.0063 69.7489H41.8567L36.4279 59.8859Z" fill="white"/>
<path d="M57.9347 68.1315H57.2716C56.3185 69.3333 54.7022 70.1207 52.5059 70.1207C48.9833 70.1207 46.9941 67.7586 46.9941 65.1477C46.9941 62.7027 48.6104 60.0504 52.8788 60.0504H57.8518V59.4288C57.8518 57.564 56.7743 56.2378 54.1221 56.2378C51.8428 56.2378 50.6824 57.1081 50.5581 58.4757H47.9887C48.1959 55.6577 50.641 54 54.0806 54C57.9347 54 60.4212 55.8649 60.4212 59.3045V69.7477H57.9761V68.1315H57.9347ZM57.8518 63.5315V62.1225H53.2518C50.7239 62.1225 49.5635 63.2 49.5635 65.0234C49.5635 66.764 50.8482 67.8414 53.1275 67.8414C55.6968 67.8829 57.8518 65.9766 57.8518 63.5315Z" fill="white"/>
<path d="M76.2113 69.7044V62.9495H67.7159V69.7044H65.1465V54.3711H67.7159V60.7116H76.2113V54.3711H78.7807V69.7044H76.2113Z" fill="white"/>
<path d="M97.0566 62.0392H85.3701C85.453 65.6861 87.1107 67.8825 90.2602 67.8825C92.4152 67.8825 93.6999 66.9707 94.1557 65.5203H96.7665C96.2692 68.1311 94.0729 70.1617 90.2602 70.1617C85.4945 70.1617 82.8008 66.6807 82.8008 61.9563C82.8008 57.232 85.5359 54.041 90.1774 54.041C94.7359 54.041 96.9323 57.3978 97.0152 61.1689V62.0392H97.0566ZM85.5359 59.8843H94.4044C94.2386 57.9365 92.7467 56.2789 90.1774 56.2789C87.4008 56.2374 85.8674 57.9365 85.5359 59.8843Z" fill="white"/>
<path d="M112.141 69.7044V62.9495H103.646V69.7044H101.076V54.3711H103.646V60.7116H112.141V54.3711H114.71V69.7044H112.141Z" fill="white"/>
<path d="M126.894 62.9924H122.294V69.7474H119.725V54.4141H122.294V60.7546H126.935L130.126 54.4141H132.82L129.09 61.7906L133.027 69.7474H130.251L126.894 62.9924Z" fill="white"/>
<path d="M136.715 50.4313V47.6133H139.45V50.4313H136.715ZM139.367 69.7016H136.798V54.3682H139.367V69.7016Z" fill="white"/>
<path d="M155.24 61.9564C156.69 62.3294 157.727 63.5726 157.727 65.5618C157.727 68.3798 155.82 69.7474 152.298 69.7474H144.424V54.4141H152.008C155.074 54.4141 156.856 55.8231 156.856 58.2681C156.856 59.76 156.069 60.8375 155.199 61.2933V61.9564H155.24ZM146.993 60.7546H151.8C153.665 60.7546 154.287 59.8014 154.287 58.6825C154.287 57.4807 153.665 56.569 151.8 56.569H146.993V60.7546ZM152.173 67.551C154.411 67.551 155.157 66.5978 155.157 65.2717C155.157 63.9456 154.411 62.951 152.173 62.951H146.993V67.551H152.173Z" fill="white"/>
<path d="M113.757 25.4049H111.478C111.478 22.9599 109.489 20.9707 107.044 20.9707C104.599 20.9707 102.609 22.9599 102.609 25.4049H100.33C100.33 21.6752 103.355 18.6914 107.044 18.6914C110.773 18.6914 113.757 21.6752 113.757 25.4049Z" fill="white"/>
</svg>
