<svg width="22" height="16" viewBox="0 0 22 16" fill="none" xmlns="http://www.w3.org/2000/svg">
<path d="M1.5842 1.08089L1.12939 1.63196L10.7724 9.59806H11.2272L20.8703 1.63196L20.4154 1.08089L10.9998 8.85934L1.5842 1.08089ZM12.99 8.14225L12.4291 8.60543L20.4147 15.2022L20.871 14.6512L12.99 8.14225ZM9.01039 8.14225L1.12939 14.6512L1.5856 15.2022L9.57123 8.60613L9.01039 8.14225ZM1.35592 1L1 1.35592V14.9283L1.35592 15.2842H20.6441L21 14.9283V1.35592L20.6441 1H1.35592ZM1.71447 1.71446H20.2855V14.5697H1.71447V1.71446Z" fill="white" stroke="white"/>
</svg>
