<svg width="16" height="16" viewBox="0 0 16 16" fill="none" xmlns="http://www.w3.org/2000/svg">
<path d="M6.34029 11.0149H4.82655C4.58654 11.0138 4.3788 10.8474 4.32575 10.6132C4.32561 10.612 4.32548 10.6059 4.32507 10.6047C3.9706 8.8828 3.9706 7.10664 4.32507 5.38475C4.32507 5.38354 4.32561 5.37139 4.32575 5.37031C4.3788 5.13584 4.58627 4.96899 4.82655 4.96751H6.34029C7.06355 4.96751 7.63076 4.40799 7.63076 3.69607V1.29101C7.63427 0.581388 7.06179 0.00337467 6.3523 0H5.71989C3.13017 0 0.913556 1.80963 0.449337 4.30284L0.234978 5.4536C-0.078326 7.13081 -0.078326 8.85175 0.234978 10.5291L0.449337 11.6797C0.913556 14.1728 3.12977 15.9824 5.71989 15.9824H6.34029C7.05005 15.9857 7.62779 15.4129 7.63076 14.7033V12.2864C7.63076 11.5744 7.06355 11.0149 6.34029 11.0149ZM6.76685 14.6914C6.7709 14.9235 6.58597 15.1146 6.35392 15.1185C6.34947 15.1185 6.34488 15.1185 6.34029 15.1185H5.71989C3.54607 15.1185 1.68662 13.6058 1.29854 11.5214L1.08445 10.3709C0.790448 8.79789 0.790448 7.18453 1.08445 5.61153L1.29854 4.4609C1.68662 2.37658 3.54607 0.863915 5.71989 0.863915H6.34029C6.57233 0.860135 6.76334 1.04534 6.76685 1.27724V3.69607C6.76685 3.93162 6.58718 4.1036 6.34029 4.1036H4.82655C4.17551 4.10562 3.61396 4.56201 3.47871 5.19901C3.47857 5.2005 3.4783 5.20698 3.4779 5.20846C3.10102 7.04185 3.10102 8.93288 3.4779 10.7664C3.4783 10.768 3.47857 10.7807 3.47871 10.7822C3.61396 11.4195 4.1751 11.8761 4.82655 11.8788H6.34029C6.58718 11.8788 6.76685 12.0508 6.76685 12.2864V14.6914Z" fill="white"/>
<path d="M11.788 1.65447C11.6213 1.82509 11.6246 2.09858 11.7951 2.26529C13.3617 3.79563 14.2247 5.8292 14.2247 7.99183C14.2247 10.1544 13.3617 12.188 11.7951 13.7182C11.6236 13.8841 11.6193 14.1576 11.7852 14.329C11.9512 14.5005 12.2246 14.5049 12.396 14.339L12.3989 14.3363C14.1334 12.6423 15.0886 10.3892 15.0886 7.99183C15.0886 5.59446 14.1334 3.3414 12.3989 1.64732C12.2281 1.48061 11.9546 1.48398 11.788 1.65447Z" fill="white"/>
<path d="M10.3874 3.61065C10.2777 3.50117 10.1179 3.45879 9.96845 3.49969C9.81888 3.54045 9.70279 3.65843 9.66405 3.8084C9.62544 3.95851 9.66999 4.11779 9.78095 4.22592L9.78378 4.22862C11.8619 6.23614 11.9191 9.54831 9.91162 11.6264C9.86977 11.6696 9.82725 11.7121 9.78378 11.7541C9.61235 11.92 9.60803 12.1935 9.77393 12.3649C9.93969 12.5364 10.2133 12.5407 10.3847 12.3749L10.3874 12.372C12.8068 10.0312 12.8704 6.17229 10.5296 3.75279C10.483 3.70446 10.4356 3.65722 10.3874 3.61065Z" fill="white"/>
<path d="M7.57604 5.76799C7.40933 5.93861 7.41244 6.2121 7.58319 6.3788C8.47384 7.23853 8.49894 8.65751 7.63921 9.54843C7.62086 9.5676 7.60209 9.58622 7.58319 9.60472C7.41176 9.77048 7.40731 10.0441 7.57334 10.2153C7.7391 10.3867 8.01272 10.3913 8.18388 10.2254L8.18685 10.2225C9.41888 9.02967 9.4506 7.06359 8.25772 5.83143C8.23437 5.80727 8.21075 5.78365 8.18685 5.76057C8.0161 5.59386 7.74248 5.59723 7.57604 5.76799Z" fill="white"/>
</svg>
