<svg width="21" height="19" viewBox="0 0 21 19" fill="none" xmlns="http://www.w3.org/2000/svg">
<path d="M18.8016 1.37042C16.4309 -0.690177 12.7682 -0.380663 10.5 2.00641C8.23184 -0.380663 4.56914 -0.694417 2.19844 1.37042C-0.885932 4.05429 -0.434761 8.42988 1.76368 10.7491L8.95781 18.3259C9.36797 18.7583 9.91758 19 10.5 19C11.0865 19 11.632 18.7626 12.0422 18.3301L19.2363 10.7534C21.4307 8.43412 21.89 4.05853 18.8016 1.37042ZM17.8336 9.32027L10.6395 16.897C10.541 16.9988 10.459 16.9988 10.3605 16.897L3.16641 9.32027C1.66934 7.74302 1.36582 4.75812 3.46582 2.93071C5.06133 1.54426 7.52227 1.75201 9.06445 3.3759L10.5 4.88955L11.9355 3.3759C13.4859 1.74354 15.9469 1.54426 17.5342 2.92647C19.6301 4.75388 19.3183 7.75574 17.8336 9.32027Z" fill="white"/>
</svg>
