<svg width="11" height="16" viewBox="0 0 11 16" fill="none" xmlns="http://www.w3.org/2000/svg">
<path d="M9.76635 2.671V0.8H10.6156C10.828 0.8 11 0.621 11 0.4C11 0.179 10.828 0 10.6156 0H0.384351C0.171997 0 0 0.179 0 0.4C0 0.621 0.171997 0.8 0.384351 0.8H1.23377V2.671C1.23929 3.8185 1.68886 4.91525 2.48062 5.71375L4.93891 8.18725L2.58896 10.4888C1.77234 11.2913 1.3098 12.4088 1.31064 13.5778V15.2H0.384351C0.171997 15.2 0 15.379 0 15.6C0 15.821 0.171997 16 0.384351 16H10.6156C10.828 16 11 15.821 11 15.6C11 15.379 10.828 15.2 10.6156 15.2H9.80479V13.6075C9.80275 12.418 9.32147 11.2839 8.4783 10.481L6.06205 8.1835L8.51998 5.71375C9.31162 4.91513 9.76095 3.8185 9.76635 2.671ZM9.03609 13.6075V15.2H2.07934V13.5778C2.07886 12.6294 2.45444 11.723 3.11708 11.072L5.50595 8.73688L7.96099 11.0713C8.64465 11.7228 9.03477 12.6428 9.03609 13.6075ZM5.50006 7.635L3.01547 5.13925C2.37277 4.4915 2.00763 3.60188 2.00247 2.671V0.8H8.99765V2.671C8.99237 3.60188 8.62723 4.4915 7.98453 5.13925L5.50006 7.635Z" fill="white"/>
</svg>
